<svg xmlns="http://www.w3.org/2000/svg" width="24" height="24" viewBox="0 0 24 24">
    <g style="opacity:.4">
        <path data-name="Path 1" d="M0 0h24v24H0z" style="fill:none"/>
        <path data-name="Path 2" d="M147.847 146.456h-.733l-.26-.251a6.04 6.04 0 1 0-.649.649l.251.26v.733l4.639 4.63 1.382-1.382zm-5.567 0a4.175 4.175 0 1 1 4.175-4.175 4.169 4.169 0 0 1-4.174 4.175z" transform="translate(-132.668 -132.668)" style="fill:#3a004e"/>
    </g>
</svg>
